<!-- This Source Code Form is subject to the terms of the Mozilla Public
   - License, v. 2.0. If a copy of the MPL was not distributed with this
   - file, You can obtain one at http://mozilla.org/MPL/2.0/. -->
<svg xmlns="http://www.w3.org/2000/svg" width="16" height="16" viewBox="0 0 16 16"><g fill="context-fill"><path d="M14 1H2a1 1 0 0 0-1 1v7a1 1 0 0 0 1 1h2a1 1 0 0 0 0-2H3V3h10v5h-1a1 1 0 0 0 0 2h2a1 1 0 0 0 1-1V2a1 1 0 0 0-1-1z"></path><path d="M10.293 11.293L9 12.586V8a1 1 0 0 0-2 0v4.586l-1.293-1.293a1 1 0 0 0-1.414 1.414l3 3a1 1 0 0 0 1.414 0l3-3a1 1 0 0 0-1.414-1.414z"></path></g></svg>
