<!-- This Source Code Form is subject to the terms of the Mozilla Public
   - License, v. 2.0. If a copy of the MPL was not distributed with this
   - file, You can obtain one at http://mozilla.org/MPL/2.0/. -->
<svg xmlns="http://www.w3.org/2000/svg" width="16" height="16" viewBox="0 0 16 16" fill="context-fill" fill-opacity="context-fill-opacity">
	<path d="M15.955 7.7A8.325 8.325 0 0 0 8 2 8.325 8.325 0 0 0 .045 7.7a1 1 0 0 0 0 .594A8.325 8.325 0 0 0 8 14a8.325 8.325 0 0 0 7.955-5.7 1 1 0 0 0 0-.6zM8.5 5a1.5 1.5 0 1 1 0 3 1.5 1.5 0 0 1 0-3zM8 12a6.331 6.331 0 0 1-5.943-4 6.061 6.061 0 0 1 2.5-3A3.955 3.955 0 0 0 4 7a4 4 0 0 0 8 0 3.955 3.955 0 0 0-.555-2 6.061 6.061 0 0 1 2.5 3A6.331 6.331 0 0 1 8 12z"/>
</svg>