<svg xmlns="http://www.w3.org/2000/svg" width="16" height="16" fill-opacity="context-fill-opacity">
  <rect
     width="6.0704308"
     height="0.64955217"
     x="0.26581773"
     y="3.3387463"
     ry="0.32477608"
     style="stroke-width:1.62508023"
     fill="context-stroke"/>
  <rect
     width="6.0704308"
     height="0.64955217"
     x="0.28681853"
     y="5.7430205"
     ry="0.32477608"
     style="stroke-width:1.62508023"
     fill="context-stroke"/>
  <rect
     width="6.0704308"
     height="0.64955217"
     x="0.28681853"
     y="8.0481062"
     ry="0.32477608"
     style="stroke-width:1.62508023"
     fill="context-stroke"/>
  <ellipse
     style="fill:none;stroke-width:1;stroke-miterlimit:4;stroke-dasharray:none"
     cx="11.084745"
     cy="4.9152541"
     rx="2.9491522"
     ry="3.4915254"
     stroke="context-stroke"/>
  <path
     style="fill:none;stroke-width:1;stroke-miterlimit:4;stroke-dasharray:none"
     type="arc"
     cx="11.101753"
     cy="-14.508476"
     rx="4.5252581"
     ry="6.0338984"
     start="0"
     end="3.1325166"
     d="m 15.627011,-14.508476 a 4.5252581,6.0338984 0 0 1 -4.504722,6.033836 4.5252581,6.0338984 0 0 1 -4.5456074,-5.979073 l 4.5250714,-0.05476 z"
     transform="scale(1,-1)"
     stroke="context-stroke"/>
  <ellipse
     style="stroke:none;stroke-width:0.1;stroke-miterlimit:4;stroke-dasharray:none;stroke-opacity:1"
     cx="11.084746"
     cy="4.9152541"
     rx="2.9491522"
     ry="3.4915254"
     fill="context-fill"/>
  <path
     style="stroke:none;stroke-width:0.1;stroke-miterlimit:4;stroke-dasharray:none;stroke-opacity:1"
     type="arc"
     cx="11.085496"
     cy="-14.576272"
     rx="4.5252581"
     ry="6.0338984"
     start="0"
     end="3.1325166"
     d="m 15.610754,-14.576272 a 4.5252581,6.0338984 0 0 1 -4.504722,6.0338362 4.5252581,6.0338984 0 0 1 -4.5456077,-5.9790732 l 4.5250717,-0.05476 z"
     transform="scale(1,-1)"
     fill="context-fill"/>
</svg>
<!-- context-fill : context-fill -->
<!-- context-stroke : red -->